<?xml version="1.0" encoding="utf-8"?>
<!-- Generator: Adobe Illustrator 24.3.0, SVG Export Plug-In . SVG Version: 6.00 Build 0)  -->
<svg version="1.1" id="Layer_1" xmlns="http://www.w3.org/2000/svg" xmlns:xlink="http://www.w3.org/1999/xlink" x="0px" y="0px"
	 viewBox="0 0 512 512" style="enable-background:new 0 0 512 512;" xml:space="preserve">
<g>
	<path d="M483.56,0H28.44C12.69,0,0,12.75,0,28.44v455.11C0,499.25,12.69,512,28.44,512h455.11c15.72,0,28.44-12.75,28.44-28.44
		V28.44C512,12.75,499.28,0,483.56,0z M455.11,455.11H56.89V56.89h398.22V455.11z"/>
	<path d="M227.56,113.78h56.89v56.89h-56.89V113.78z M227.56,227.56h56.89v170.67h-56.89V227.56z"/>
</g>
</svg>
